…
The following tibble shows the proportion of positive and negative terms in each story. Every story has more negative than positive terms but some more than others. It appears to me that the top tf-idf sentiments was more useful in showing the overall sentiment of the stories than looking at every term in the stories.

  sherlock_word_counts %>%
    inner_join(get_sentiments("bing")) %>%
    group_by(book) %>%
    count(sentiment) %>%
    mutate(proportion = round(n/sum(n), 2), max_prop = max(proportion)) %>%
    arrange(desc(max_prop)) %>%
    select(-max_prop)

## Joining, by = "word"

## # A tibble: 24 x 4
## # Groups:   book [12]
##    book                                     sentiment     n proportion
##    <chr>                                    <chr>     <int>      <dbl>
##  1 Iv. The boscombe valley mystery          negative    189       0.67
##  2 Iv. The boscombe valley mystery          positive     95       0.33
##  3 Vi. The man with the twisted lip         negative    200       0.67
##  4 Vi. The man with the twisted lip         positive    100       0.33
##  5 Viii. The adventure of the speckled band negative    208       0.67
##  6 Viii. The adventure of the speckled band positive    103       0.33
##  7 V. The five orange pips                  negative    153       0.66
##  8 V. The five orange pips                  positive     79       0.34
##  9 Vii. The adventure of the blue carbuncle negative    153       0.64
## 10 Vii. The adventure of the blue carbuncle positive     86       0.36
## # … with 14 more rows
…
